{
    "author": "Bob Mottram",
    "email": "bob@libreserver.org",
    "website": "https://libreserver.org",
    "version": "1.0",
    "releaseDate": "2021-08-25",
    "license": "AGPLv3",
    "compatible": "3.0",
    "notes": "companion"
}
